0	20.0	SG=0.0	CH=0.0	AR=0.0	FL=0.0	QS=100.0	
100	42.8	SG=22.0	CH=88.3333333333	AR=98.0	FL=5.0	QS=0.666666666667	
200	62.2666666667	SG=51.3333333333	CH=92.6666666667	AR=28.6666666667	FL=63.6666666667	QS=75.0	
300	49.5333333333	SG=56.3333333333	CH=98.6666666667	AR=80.0	FL=11.6666666667	QS=1.0	
400	64.2	SG=63.3333333333	CH=50.0	AR=65.0	FL=62.3333333333	QS=80.3333333333	
500	65.3333333333	SG=77.0	CH=66.3333333333	AR=69.0	FL=45.0	QS=69.3333333333	
600	79.8666666667	SG=76.3333333333	CH=83.0	AR=94.6666666667	FL=66.6666666667	QS=78.6666666667	
700	86.8	SG=77.6666666667	CH=94.6666666667	AR=97.0	FL=77.3333333333	QS=87.3333333333	
800	85.6666666667	SG=85.3333333333	CH=95.3333333333	AR=95.6666666667	FL=70.0	QS=82.0	
900	87.0666666667	SG=85.6666666667	CH=96.0	AR=93.3333333333	FL=72.0	QS=88.3333333333	
1000	88.8666666667	SG=88.3333333333	CH=94.3333333333	AR=93.3333333333	FL=75.6666666667	QS=92.6666666667	
1100	90.1333333333	SG=82.0	CH=95.3333333333	AR=97.0	FL=85.0	QS=91.3333333333	
1200	90.4	SG=82.6666666667	CH=95.6666666667	AR=97.6666666667	FL=84.3333333333	QS=91.6666666667	
1300	90.4666666667	SG=83.3333333333	CH=94.6666666667	AR=98.0	FL=84.0	QS=92.3333333333	
1400	90.6	SG=83.0	CH=95.0	AR=97.0	FL=86.0	QS=92.0	
1500	90.6666666667	SG=82.6666666667	CH=95.6666666667	AR=98.0	FL=85.0	QS=92.0	
1600	90.6666666667	SG=83.6666666667	CH=95.3333333333	AR=97.6666666667	FL=84.6666666667	QS=92.0	
1700	90.7333333333	SG=84.0	CH=95.3333333333	AR=98.0	FL=85.0	QS=91.3333333333	
1800	90.7333333333	SG=84.0	CH=95.3333333333	AR=98.0	FL=85.0	QS=91.3333333333	
1900	90.3333333333	SG=84.0	CH=95.3333333333	AR=97.3333333333	FL=84.0	QS=91.0	
2000	90.6666666667	SG=84.0	CH=95.3333333333	AR=98.0	FL=85.0	QS=91.0	
2100	90.6666666667	SG=84.0	CH=95.3333333333	AR=98.0	FL=85.0	QS=91.0	
2200	90.6666666667	SG=83.6666666667	CH=95.3333333333	AR=98.0	FL=85.3333333333	QS=91.0	
2300	90.7333333333	SG=83.6666666667	CH=95.6666666667	AR=98.0	FL=85.3333333333	QS=91.0	
2400	90.8	SG=84.0	CH=95.6666666667	AR=98.0	FL=85.3333333333	QS=91.0	
2500	90.7333333333	SG=83.6666666667	CH=95.6666666667	AR=98.0	FL=85.3333333333	QS=91.0	
2600	90.8	SG=84.0	CH=95.6666666667	AR=98.0	FL=85.3333333333	QS=91.0	
2700	90.7333333333	SG=84.0	CH=95.6666666667	AR=98.0	FL=85.0	QS=91.0	
2800	90.8	SG=84.0	CH=95.6666666667	AR=98.0	FL=85.3333333333	QS=91.0	
2900	90.8	SG=84.0	CH=95.6666666667	AR=98.0	FL=85.3333333333	QS=91.0	
3000	90.7333333333	SG=84.0	CH=95.6666666667	AR=98.0	FL=85.0	QS=91.0	
3100	90.7333333333	SG=84.0	CH=95.6666666667	AR=98.0	FL=85.0	QS=91.0	
3200	90.7333333333	SG=84.0	CH=95.6666666667	AR=98.0	FL=85.0	QS=91.0	
3300	90.7333333333	SG=84.0	CH=95.6666666667	AR=98.0	FL=85.0	QS=91.0	
3400	90.7333333333	SG=84.0	CH=95.6666666667	AR=98.0	FL=85.0	QS=91.0	
3500	90.7333333333	SG=84.0	CH=95.6666666667	AR=98.0	FL=85.0	QS=91.0	
3600	90.7333333333	SG=84.0	CH=95.6666666667	AR=98.0	FL=85.0	QS=91.0	
3700	90.7333333333	SG=84.0	CH=95.6666666667	AR=98.0	FL=85.0	QS=91.0	
3800	90.7333333333	SG=84.0	CH=95.6666666667	AR=98.0	FL=85.0	QS=91.0	
3900	90.7333333333	SG=84.0	CH=95.6666666667	AR=98.0	FL=85.0	QS=91.0	
4000	90.7333333333	SG=84.0	CH=95.6666666667	AR=98.0	FL=85.0	QS=91.0	
4100	90.7333333333	SG=84.0	CH=95.6666666667	AR=98.0	FL=85.0	QS=91.0	
4200	90.7333333333	SG=84.0	CH=95.6666666667	AR=98.0	FL=85.0	QS=91.0	
4300	90.7333333333	SG=84.0	CH=95.6666666667	AR=98.0	FL=85.0	QS=91.0	
4400	90.7333333333	SG=84.0	CH=95.6666666667	AR=98.0	FL=85.0	QS=91.0	
4500	90.7333333333	SG=84.0	CH=95.6666666667	AR=98.0	FL=85.0	QS=91.0	
4600	90.7333333333	SG=84.0	CH=95.6666666667	AR=98.0	FL=85.0	QS=91.0	
4700	90.7333333333	SG=84.0	CH=95.6666666667	AR=98.0	FL=85.0	QS=91.0	
4800	90.7333333333	SG=84.0	CH=95.6666666667	AR=98.0	FL=85.0	QS=91.0	
4900	90.7333333333	SG=84.0	CH=95.6666666667	AR=98.0	FL=85.0	QS=91.0	
5000	90.7333333333	SG=84.0	CH=95.6666666667	AR=98.0	FL=85.0	QS=91.0	
